"Mur_angle_bardage,1,8;4;5;5;5;5;5;5;6;7;3;1;9;2;2;2;2;2;2,1;2"
"Mur_droit_crepis,1,29;4;5;5;5;5;6;3;1;2,3"
"Mur_droit_bardage,1,8;4;5;5;5;5;6;3;1;2,1;2"
"Mur_fenetre_bardage,2,8;4;5;5;5;5;6;3;1;2;2;2;2;2;2;10,1;2"
"Mur_porte_bardage,2,11;8;4;5;5;5;5;6;3;1;2;2;2;2;2;2,1;2"
"Plancher_angle_1_bois,5,12;12;12;12;12;13;13;13;13;13;14;14;15;15;15;15;15;16;16;16;16;17;17;17;17;17;18;18;18;18;18,1;2;3"
"Plancher_angle_2_bois,5,12;12;12;12;12;13;13;13;13;13;14;14;15;15;15;15;15;16;16;16;16;17;17;17;17;17;18;18;18;18;18,1;2;3"
"Plancher_cote_bois,5,12;12;12;12;12;13;13;13;13;13;14;15;15;15;15;15;16;16;16;16;16;16;17;17;17;17;17;18;18;18;18;18,1;2;3"
"Plancher_simple_bois,5,12;12;12;12;12;13;13;13;13;13;15;15;15;15;15;16;16;16;16;16;16;17;17;17;17;17;18;18;18;18;18,1;2;3"
"Plancher_cote_gd_bois,5,12;12;12;12;12;13;13;13;13;13;14;15;15;15;15;15;16;16;16;16;16;16;17;17;17;17;17;18;18;18;18;18,1;2;3"
"Mur_baie_vitre_bardage,2,8;4;5;5;5;5;6;3;1;2;8;4;5;5;5;5;6;3;1;2;19,1;2"
"Plot_beton,6,20;21,1;2;3"
"Dalle_beton,6,22;23;23;23;23,1;2;3"
"Mur_droit_interieur,1,25;25;24;2;2;2;2,1;2;3"
"Mur_porte_interieur,2,25;25;24;2;2;2;2;26,1;2;3"
"Toiture_simple,3,1;1;4;3;7;2;2;2;2;27,1;2;3"
"Toiture_angle,3,1;1;4;3;7;2;2;2;2;27;28;28,1;2;3"
"Toiture_cote,3,1;1;4;3;7;2;2;2;2;27;28,1;2;3"
"Mur_fenetre_crepis,2,29;4;5;5;5;5;6;3;1;30;2,3"
"Mur_porte_crepis,2,29;4;5;5;5;5;6;3;1;31;2,3"
"Mur_angle_crepis,1,29;4;5;5;5;5;5;5;6;7;3;1;32;2;2;2;2;2;2,3"
"Mur_baie_vitre_crepis,2,8;4;5;5;5;5;6;3;1;2;8;4;5;5;5;5;6;3;1;2;33,3"
